// Jest Snapshot v1, https://goo.gl/fbAQLP

exports[`Board with all unmatched cards matches snapshot 1`] = `
<div
  className="board"
>
  <Card
    canMakeSelection={true}
    card={
      Object {
        "flipped": false,
        "id": 0,
        "image": "dog",
        "matched": false,
      }
    }
    key="0"
    selectCard={[Function]}
  />
  <Card
    canMakeSelection={true}
    card={
      Object {
        "flipped": false,
        "id": 1,
        "image": "cat",
        "matched": false,
      }
    }
    key="1"
    selectCard={[Function]}
  />
  <Card
    canMakeSelection={true}
    card={
      Object {
        "flipped": false,
        "id": 2,
        "image": "dog",
        "matched": false,
      }
    }
    key="2"
    selectCard={[Function]}
  />
  <Card
    canMakeSelection={true}
    card={
      Object {
        "flipped": false,
        "id": 3,
        "image": "lion",
        "matched": false,
      }
    }
    key="3"
    selectCard={[Function]}
  />
  <Card
    canMakeSelection={true}
    card={
      Object {
        "flipped": false,
        "id": 4,
        "image": "lion",
        "matched": false,
      }
    }
    key="4"
    selectCard={[Function]}
  />
  <Card
    canMakeSelection={true}
    card={
      Object {
        "flipped": false,
        "id": 5,
        "image": "tiger",
        "matched": false,
      }
    }
    key="5"
    selectCard={[Function]}
  />
  <Card
    canMakeSelection={true}
    card={
      Object {
        "flipped": false,
        "id": 6,
        "image": "cat",
        "matched": false,
      }
    }
    key="6"
    selectCard={[Function]}
  />
  <Card
    canMakeSelection={true}
    card={
      Object {
        "flipped": false,
        "id": 7,
        "image": "tiger",
        "matched": false,
      }
    }
    key="7"
    selectCard={[Function]}
  />
</div>
`;

exports[`Board with one flipped card matches snapshot 1`] = `
<div
  className="board"
>
  <Card
    canMakeSelection={true}
    card={
      Object {
        "flipped": true,
        "id": 0,
        "image": "dog",
        "matched": false,
      }
    }
    key="0"
    selectCard={[Function]}
  />
  <Card
    canMakeSelection={true}
    card={
      Object {
        "flipped": false,
        "id": 1,
        "image": "cat",
        "matched": false,
      }
    }
    key="1"
    selectCard={[Function]}
  />
  <Card
    canMakeSelection={true}
    card={
      Object {
        "flipped": false,
        "id": 2,
        "image": "dog",
        "matched": false,
      }
    }
    key="2"
    selectCard={[Function]}
  />
  <Card
    canMakeSelection={true}
    card={
      Object {
        "flipped": false,
        "id": 3,
        "image": "lion",
        "matched": false,
      }
    }
    key="3"
    selectCard={[Function]}
  />
  <Card
    canMakeSelection={true}
    card={
      Object {
        "flipped": false,
        "id": 4,
        "image": "lion",
        "matched": false,
      }
    }
    key="4"
    selectCard={[Function]}
  />
  <Card
    canMakeSelection={true}
    card={
      Object {
        "flipped": false,
        "id": 5,
        "image": "tiger",
        "matched": false,
      }
    }
    key="5"
    selectCard={[Function]}
  />
  <Card
    canMakeSelection={true}
    card={
      Object {
        "flipped": false,
        "id": 6,
        "image": "cat",
        "matched": false,
      }
    }
    key="6"
    selectCard={[Function]}
  />
  <Card
    canMakeSelection={true}
    card={
      Object {
        "flipped": false,
        "id": 7,
        "image": "tiger",
        "matched": false,
      }
    }
    key="7"
    selectCard={[Function]}
  />
</div>
`;
